[
    {
        "id": "215d29c74c2b8e94",
        "type": "tab",
        "label": "MQTT Hello Word",
        "disabled": false,
        "info": "",
        "env": []
    },
    {
        "id": "c1f3d9590e61c2d5",
        "type": "mqtt in",
        "z": "215d29c74c2b8e94",
        "name": "",
        "topic": "#",
        "qos": "0",
        "datatype": "auto",
        "broker": "d4561f595e491cdc",
        "nl": false,
        "rap": false,
        "inputs": 0,
        "x": 270,
        "y": 140,
        "wires": [
            [
                "9cbe28c89cf38dd1"
            ]
        ]
    },
    {
        "id": "9cbe28c89cf38dd1",
        "type": "debug",
        "z": "215d29c74c2b8e94",
        "name": "",
        "active": true,
        "tosidebar": true,
        "console": false,
        "tostatus": false,
        "complete": "payload",
        "targetType": "msg",
        "statusVal": "",
        "statusType": "auto",
        "x": 570,
        "y": 200,
        "wires": []
    },
    {
        "id": "1b96714823e7f032",
        "type": "inject",
        "z": "215d29c74c2b8e94",
        "name": "inject \"open\" command",
        "props": [
            {
                "p": "payload"
            },
            {
                "p": "topic",
                "vt": "str"
            }
        ],
        "repeat": "",
        "crontab": "",
        "once": false,
        "onceDelay": 0.1,
        "topic": "/hello",
        "payload": "open",
        "payloadType": "str",
        "x": 320,
        "y": 280,
        "wires": [
            [
                "442d05c5938f773d"
            ]
        ]
    },
    {
        "id": "442d05c5938f773d",
        "type": "mqtt out",
        "z": "215d29c74c2b8e94",
        "name": "",
        "topic": "",
        "qos": "",
        "retain": "",
        "respTopic": "",
        "contentType": "",
        "userProps": "",
        "correl": "",
        "expiry": "",
        "broker": "d4561f595e491cdc",
        "x": 550,
        "y": 360,
        "wires": []
    },
    {
        "id": "9f4f1c81ccd0044a",
        "type": "inject",
        "z": "215d29c74c2b8e94",
        "name": "inject \"close\" command",
        "props": [
            {
                "p": "payload"
            },
            {
                "p": "topic",
                "vt": "str"
            }
        ],
        "repeat": "",
        "crontab": "",
        "once": false,
        "onceDelay": 0.1,
        "topic": "/hello",
        "payload": "close",
        "payloadType": "str",
        "x": 320,
        "y": 420,
        "wires": [
            [
                "442d05c5938f773d"
            ]
        ]
    },
    {
        "id": "9504700fdd3b6906",
        "type": "ui_spacer",
        "z": "215d29c74c2b8e94",
        "name": "spacer",
        "group": "36d6d8249c495f7d",
        "order": 1,
        "width": "1",
        "height": "1"
    },
    {
        "id": "7d18e63481aff4df",
        "type": "ui_spacer",
        "z": "215d29c74c2b8e94",
        "name": "spacer",
        "group": "0206b3a8b0293400",
        "order": 2,
        "width": 1,
        "height": 1
    },
    {
        "id": "fb574607236c86ee",
        "type": "ui_spacer",
        "z": "215d29c74c2b8e94",
        "name": "spacer",
        "group": "e88e7a9c6644ffa3",
        "order": 3,
        "width": "2",
        "height": "1"
    },
    {
        "id": "d4561f595e491cdc",
        "type": "mqtt-broker",
        "z": "215d29c74c2b8e94",
        "name": "",
        "broker": "192.168.1.57",
        "port": "1883",
        "clientid": "",
        "autoConnect": true,
        "usetls": false,
        "protocolVersion": "4",
        "keepalive": "60",
        "cleansession": true,
        "birthTopic": "",
        "birthQos": "0",
        "birthPayload": "",
        "birthMsg": {},
        "closeTopic": "",
        "closeQos": "0",
        "closePayload": "",
        "closeMsg": {},
        "willTopic": "",
        "willQos": "0",
        "willPayload": "",
        "willMsg": {},
        "sessionExpiry": ""
    },
    {
        "id": "36d6d8249c495f7d",
        "type": "ui_group",
        "name": "Messages",
        "tab": "13277f9970bc470d",
        "order": 1,
        "disp": true,
        "width": "12",
        "collapse": false,
        "className": ""
    },
    {
        "id": "0206b3a8b0293400",
        "type": "ui_group",
        "name": "Open/Close",
        "tab": "13277f9970bc470d",
        "order": 3,
        "disp": true,
        "width": "12",
        "collapse": false,
        "className": ""
    },
    {
        "id": "e88e7a9c6644ffa3",
        "type": "ui_group",
        "d": true,
        "name": "",
        "tab": "13277f9970bc470d",
        "order": 2,
        "disp": true,
        "width": "6",
        "collapse": false,
        "className": ""
    },
    {
        "id": "13277f9970bc470d",
        "type": "ui_tab",
        "name": "MQTT Hello Word",
        "icon": "dashboard",
        "order": 1,
        "disabled": false,
        "hidden": false
    }
]