[
    {
        "id": "c5549d87f9bb9b91",
        "type": "tab",
        "label": "Arduino Nano RP2040",
        "disabled": false,
        "info": "",
        "env": []
    },
    {
        "id": "31c87af603945808",
        "type": "tab",
        "label": "MQTT Nicla Sense ME",
        "disabled": true,
        "info": "",
        "env": []
    },
    {
        "id": "6c890d8c85e65aed",
        "type": "group",
        "z": "c5549d87f9bb9b91",
        "name": "OLD GRAPHS",
        "style": {
            "stroke": "#0070c0",
            "fill": "#bfdbef",
            "label": true,
            "color": "#000000"
        },
        "nodes": [
            "159ee34646d810dc",
            "ad0fa191cb8c755d",
            "08e23f4e8a950e22",
            "9ed7f8fbdbf53756",
            "c7a8cc699fb3e981",
            "95a4007862425bef"
        ],
        "x": 454,
        "y": 19,
        "w": 492,
        "h": 162
    },
    {
        "id": "36d6d8249c495f7d",
        "type": "ui_group",
        "z": "31c87af603945808",
        "name": "Motion",
        "tab": "13277f9970bc470d",
        "order": 1,
        "disp": true,
        "width": "12",
        "collapse": true,
        "className": ""
    },
    {
        "id": "3886710e2462762d",
        "type": "ui_group",
        "name": "Environment",
        "tab": "13277f9970bc470d",
        "order": 2,
        "disp": true,
        "width": "12",
        "collapse": true,
        "className": ""
    },
    {
        "id": "13277f9970bc470d",
        "type": "ui_tab",
        "z": "31c87af603945808",
        "name": "MQTT Nicla Sense ME",
        "icon": "dashboard",
        "order": 1,
        "disabled": false,
        "hidden": false
    },
    {
        "id": "e6013dbc3aef79b3",
        "type": "ui_base",
        "theme": {
            "name": "theme-light",
            "lightTheme": {
                "default": "#0094CE",
                "baseColor": "#0094CE",
                "baseFont": "-apple-system,BlinkMacSystemFont,Segoe UI,Roboto,Oxygen-Sans,Ubuntu,Cantarell,Helvetica Neue,sans-serif",
                "edited": true,
                "reset": false
            },
            "darkTheme": {
                "default": "#097479",
                "baseColor": "#097479",
                "baseFont": "-apple-system,BlinkMacSystemFont,Segoe UI,Roboto,Oxygen-Sans,Ubuntu,Cantarell,Helvetica Neue,sans-serif",
                "edited": false
            },
            "customTheme": {
                "name": "Untitled Theme 1",
                "default": "#4B7930",
                "baseColor": "#4B7930",
                "baseFont": "-apple-system,BlinkMacSystemFont,Segoe UI,Roboto,Oxygen-Sans,Ubuntu,Cantarell,Helvetica Neue,sans-serif"
            },
            "themeState": {
                "base-color": {
                    "default": "#0094CE",
                    "value": "#0094CE",
                    "edited": false
                },
                "page-titlebar-backgroundColor": {
                    "value": "#0094CE",
                    "edited": false
                },
                "page-backgroundColor": {
                    "value": "#fafafa",
                    "edited": false
                },
                "page-sidebar-backgroundColor": {
                    "value": "#ffffff",
                    "edited": false
                },
                "group-textColor": {
                    "value": "#1bbfff",
                    "edited": false
                },
                "group-borderColor": {
                    "value": "#ffffff",
                    "edited": false
                },
                "group-backgroundColor": {
                    "value": "#ffffff",
                    "edited": false
                },
                "widget-textColor": {
                    "value": "#111111",
                    "edited": false
                },
                "widget-backgroundColor": {
                    "value": "#0094ce",
                    "edited": false
                },
                "widget-borderColor": {
                    "value": "#ffffff",
                    "edited": false
                },
                "base-font": {
                    "value": "-apple-system,BlinkMacSystemFont,Segoe UI,Roboto,Oxygen-Sans,Ubuntu,Cantarell,Helvetica Neue,sans-serif"
                }
            },
            "angularTheme": {
                "primary": "indigo",
                "accents": "blue",
                "warn": "red",
                "background": "grey",
                "palette": "light"
            }
        },
        "site": {
            "name": "Node-RED Dashboard",
            "hideToolbar": "false",
            "allowSwipe": "false",
            "lockMenu": "false",
            "allowTempTheme": "true",
            "dateFormat": "DD/MM/YYYY",
            "sizes": {
                "sx": 48,
                "sy": 48,
                "gx": 6,
                "gy": 6,
                "cx": 6,
                "cy": 6,
                "px": 0,
                "py": 0
            }
        }
    },
    {
        "id": "c79261ef7a0d57f6",
        "type": "MySQLdatabase",
        "name": "MySQL local",
        "host": "192.168.1.64",
        "port": "3306",
        "db": "pit_db",
        "tz": "",
        "charset": "UTF8"
    },
    {
        "id": "d416d6d62b337f04",
        "type": "mqtt-broker",
        "name": "Home Connection",
        "broker": "192.168.1.64",
        "port": "1883",
        "clientid": "",
        "autoConnect": true,
        "usetls": false,
        "protocolVersion": "4",
        "keepalive": "60",
        "cleansession": true,
        "birthTopic": "",
        "birthQos": "0",
        "birthPayload": "",
        "birthMsg": {},
        "closeTopic": "",
        "closeQos": "0",
        "closePayload": "",
        "closeMsg": {},
        "willTopic": "",
        "willQos": "0",
        "willPayload": "",
        "willMsg": {},
        "userProps": "",
        "sessionExpiry": ""
    },
    {
        "id": "6046dd32a1d26ea2",
        "type": "comment",
        "z": "c5549d87f9bb9b91",
        "name": "IMU JSON to Object",
        "info": "Parse the payload (JSON string), into an Object.",
        "x": 290,
        "y": 180,
        "wires": []
    },
    {
        "id": "159ee34646d810dc",
        "type": "ui_chart",
        "z": "c5549d87f9bb9b91",
        "g": "6c890d8c85e65aed",
        "name": "",
        "group": "36d6d8249c495f7d",
        "order": 2,
        "width": 0,
        "height": 0,
        "label": "Gyroscope",
        "chartType": "line",
        "legend": "true",
        "xformat": "HH:mm:ss",
        "interpolate": "linear",
        "nodata": "",
        "dot": false,
        "ymin": "",
        "ymax": "",
        "removeOlder": 1,
        "removeOlderPoints": "",
        "removeOlderUnit": "60",
        "cutout": 0,
        "useOneColor": false,
        "useUTC": false,
        "colors": [
            "#1f77b4",
            "#aec7e8",
            "#ff7f0e",
            "#2ca02c",
            "#98df8a",
            "#d62728",
            "#ff9896",
            "#9467bd",
            "#c5b0d5"
        ],
        "outputs": 1,
        "useDifferentColor": false,
        "className": "",
        "x": 830,
        "y": 100,
        "wires": [
            []
        ]
    },
    {
        "id": "ad0fa191cb8c755d",
        "type": "ui_chart",
        "z": "c5549d87f9bb9b91",
        "g": "6c890d8c85e65aed",
        "name": "",
        "group": "36d6d8249c495f7d",
        "order": 3,
        "width": 0,
        "height": 0,
        "label": "Magnetometer",
        "chartType": "line",
        "legend": "true",
        "xformat": "HH:mm:ss",
        "interpolate": "linear",
        "nodata": "",
        "dot": false,
        "ymin": "",
        "ymax": "",
        "removeOlder": 1,
        "removeOlderPoints": "",
        "removeOlderUnit": "60",
        "cutout": 0,
        "useOneColor": false,
        "useUTC": false,
        "colors": [
            "#1f77b4",
            "#aec7e8",
            "#ff7f0e",
            "#2ca02c",
            "#98df8a",
            "#d62728",
            "#ff9896",
            "#9467bd",
            "#c5b0d5"
        ],
        "outputs": 1,
        "useDifferentColor": false,
        "className": "",
        "x": 840,
        "y": 140,
        "wires": [
            []
        ]
    },
    {
        "id": "aea78718eac2e806",
        "type": "mqtt in",
        "z": "c5549d87f9bb9b91",
        "name": "IMU",
        "topic": "imu",
        "qos": "0",
        "datatype": "auto",
        "broker": "d416d6d62b337f04",
        "nl": false,
        "rap": false,
        "inputs": 0,
        "x": 90,
        "y": 220,
        "wires": [
            [
                "6b48a32e6f00b984",
                "af4b5d35df19e1da"
            ]
        ]
    },
    {
        "id": "08e23f4e8a950e22",
        "type": "function",
        "z": "c5549d87f9bb9b91",
        "g": "6c890d8c85e65aed",
        "name": "Acceleration Split Series",
        "func": "var m = [\n    { payload: msg.payload['acc_x'], series: \"X\" },\n    { payload: msg.payload['acc_y'], series: \"Y\" },\n    { payload: msg.payload['acc_z'], series: \"Z\" },\n];\n\nreturn [m];",
        "outputs": 1,
        "noerr": 0,
        "initialize": "",
        "finalize": "",
        "libs": [],
        "x": 590,
        "y": 60,
        "wires": [
            [
                "9ed7f8fbdbf53756"
            ]
        ]
    },
    {
        "id": "6b48a32e6f00b984",
        "type": "json",
        "z": "c5549d87f9bb9b91",
        "name": "JSON to Object",
        "property": "payload",
        "action": "",
        "pretty": false,
        "x": 300,
        "y": 220,
        "wires": [
            [
                "08e23f4e8a950e22",
                "c7a8cc699fb3e981",
                "95a4007862425bef",
                "695ae558618da0df",
                "6347486e5a7a7ff4"
            ]
        ]
    },
    {
        "id": "9ed7f8fbdbf53756",
        "type": "ui_chart",
        "z": "c5549d87f9bb9b91",
        "g": "6c890d8c85e65aed",
        "name": "",
        "group": "36d6d8249c495f7d",
        "order": 1,
        "width": 0,
        "height": 0,
        "label": "Acceleration",
        "chartType": "line",
        "legend": "true",
        "xformat": "HH:mm:ss",
        "interpolate": "linear",
        "nodata": "",
        "dot": false,
        "ymin": "",
        "ymax": "",
        "removeOlder": 1,
        "removeOlderPoints": "",
        "removeOlderUnit": "60",
        "cutout": 0,
        "useOneColor": false,
        "useUTC": false,
        "colors": [
            "#1f77b4",
            "#aec7e8",
            "#ff7f0e",
            "#2ca02c",
            "#98df8a",
            "#d62728",
            "#ff9896",
            "#9467bd",
            "#c5b0d5"
        ],
        "outputs": 1,
        "useDifferentColor": false,
        "className": "",
        "x": 830,
        "y": 60,
        "wires": [
            []
        ]
    },
    {
        "id": "c7a8cc699fb3e981",
        "type": "function",
        "z": "c5549d87f9bb9b91",
        "g": "6c890d8c85e65aed",
        "name": "Gyroscope Split Series",
        "func": "var m = [\n    { payload: msg.payload['gyro_x'], series: \"X\" },\n    { payload: msg.payload['gyro_y'], series: \"Y\" },\n    { payload: msg.payload['gyro_z'], series: \"Z\" },\n];\n\nreturn [m];",
        "outputs": 1,
        "noerr": 0,
        "initialize": "",
        "finalize": "",
        "libs": [],
        "x": 580,
        "y": 100,
        "wires": [
            [
                "159ee34646d810dc"
            ]
        ]
    },
    {
        "id": "95a4007862425bef",
        "type": "function",
        "z": "c5549d87f9bb9b91",
        "g": "6c890d8c85e65aed",
        "name": "Magnetometer Split Series",
        "func": "var m = [\n    { payload: msg.payload['mag_x'], series: \"X\" },\n    { payload: msg.payload['mag_y'], series: \"Y\" },\n    { payload: msg.payload['mag_z'], series: \"Z\" },\n];\n\nreturn [m];",
        "outputs": 1,
        "noerr": 0,
        "initialize": "",
        "finalize": "",
        "libs": [],
        "x": 600,
        "y": 140,
        "wires": [
            [
                "ad0fa191cb8c755d"
            ]
        ]
    },
    {
        "id": "5874ea8776c6bbd0",
        "type": "debug",
        "z": "c5549d87f9bb9b91",
        "name": "DB Debug",
        "active": true,
        "tosidebar": true,
        "console": true,
        "tostatus": false,
        "complete": "true",
        "targetType": "full",
        "statusVal": "",
        "statusType": "auto",
        "x": 990,
        "y": 220,
        "wires": []
    },
    {
        "id": "695ae558618da0df",
        "type": "function",
        "z": "c5549d87f9bb9b91",
        "name": "Insert IMU into DB",
        "func": "// msg.topic must hold the query for the database\n// result is returned in msg.payload\n// msg.payload = ['NodeRED', 'test@nodered.com'];\n\nlet input = msg\n\n// https://riptutorial.com/mysql/example/25536/store-a-javascript-timestamp-into-a-timestamp-column\nlet date = Date.now() // * 0.001;\n\n// console.log('input: -- ', input)\n\n// fill msg.payload with all the values to insert into the database\nmsg.payload = [\n    input.payload['acc_x'],\n    input.payload['acc_y'],\n    input.payload['acc_z'],\n    input.payload['gyro_x'],\n    input.payload['gyro_y'],\n    input.payload['gyro_z'],\n    date\n];\n\nmsg.topic = \"INSERT INTO imu(acc_x, acc_y, acc_z, gyro_x, gyro_y, gyro_z, time) VALUES (?, ?, ?, ?, ?, ?, ?);\"\nreturn msg;",
        "outputs": 1,
        "noerr": 0,
        "initialize": "",
        "finalize": "",
        "libs": [],
        "x": 550,
        "y": 220,
        "wires": [
            [
                "2825cacb173748c0"
            ]
        ]
    },
    {
        "id": "631345b43488a245",
        "type": "comment",
        "z": "c5549d87f9bb9b91",
        "name": "IP address comment",
        "info": "Specify the IP as the actual IP of the host machine.\n127.0.0.1 or localhost won't work since MySQL is on a different Docker container. ",
        "x": 790,
        "y": 280,
        "wires": []
    },
    {
        "id": "6347486e5a7a7ff4",
        "type": "debug",
        "z": "c5549d87f9bb9b91",
        "name": "IMU debugger",
        "active": false,
        "tosidebar": true,
        "console": true,
        "tostatus": false,
        "complete": "payload",
        "targetType": "msg",
        "statusVal": "",
        "statusType": "auto",
        "x": 520,
        "y": 300,
        "wires": []
    },
    {
        "id": "af4b5d35df19e1da",
        "type": "debug",
        "z": "c5549d87f9bb9b91",
        "name": "liv 1",
        "active": false,
        "tosidebar": true,
        "console": true,
        "tostatus": false,
        "complete": "true",
        "targetType": "full",
        "statusVal": "",
        "statusType": "auto",
        "x": 270,
        "y": 300,
        "wires": []
    },
    {
        "id": "7cc3c847afc290cf",
        "type": "function",
        "z": "c5549d87f9bb9b91",
        "name": "Insert temperature into DB",
        "func": "// msg.topic must hold the query for the database\n// result is returned in msg.payload\n// msg.payload = ['NodeRED', 'test@nodered.com'];\n\nlet input = msg\n\n// https://riptutorial.com/mysql/example/25536/store-a-javascript-timestamp-into-a-timestamp-column\nlet date = Date.now() // * 0.001;\n\n// console.log('input: -- ', input)\n\n// fill msg.payload with all the values to insert into the database\nmsg.payload = [\n    input.payload['temp_c'],\n    date\n];\n\nmsg.topic = \"INSERT INTO temperature(temp_c, time) VALUES (?, ?);\"\nreturn msg;",
        "outputs": 1,
        "noerr": 0,
        "initialize": "",
        "finalize": "",
        "libs": [],
        "x": 540,
        "y": 380,
        "wires": [
            [
                "2825cacb173748c0"
            ]
        ]
    },
    {
        "id": "e4409a8547d9953f",
        "type": "json",
        "z": "c5549d87f9bb9b91",
        "name": "JSON to Object",
        "property": "payload",
        "action": "",
        "pretty": false,
        "x": 300,
        "y": 380,
        "wires": [
            [
                "7cc3c847afc290cf"
            ]
        ]
    },
    {
        "id": "32c5918453a97bee",
        "type": "mqtt in",
        "z": "c5549d87f9bb9b91",
        "name": "Temperature",
        "topic": "temp",
        "qos": "0",
        "datatype": "auto",
        "broker": "d416d6d62b337f04",
        "nl": false,
        "rap": false,
        "inputs": 0,
        "x": 110,
        "y": 380,
        "wires": [
            [
                "e4409a8547d9953f"
            ]
        ]
    },
    {
        "id": "2825cacb173748c0",
        "type": "mysql",
        "z": "c5549d87f9bb9b91",
        "mydb": "c79261ef7a0d57f6",
        "name": "Local MySQL",
        "x": 780,
        "y": 220,
        "wires": [
            [
                "5874ea8776c6bbd0"
            ]
        ]
    },
    {
        "id": "7c34553ceb2681e5",
        "type": "comment",
        "z": "31c87af603945808",
        "name": "IMU JSON to Object",
        "info": "Parse the payload (JSON string), into an Object.\nThere are two different parser since the function that make the INSERT into the database, must only see the BSEC values.",
        "x": 290,
        "y": 140,
        "wires": []
    },
    {
        "id": "a80e18fcc8c464af",
        "type": "ui_chart",
        "z": "31c87af603945808",
        "name": "",
        "group": "36d6d8249c495f7d",
        "order": 2,
        "width": 0,
        "height": 0,
        "label": "Gyroscope",
        "chartType": "line",
        "legend": "true",
        "xformat": "HH:mm:ss",
        "interpolate": "linear",
        "nodata": "",
        "dot": false,
        "ymin": "",
        "ymax": "",
        "removeOlder": 1,
        "removeOlderPoints": "",
        "removeOlderUnit": "60",
        "cutout": 0,
        "useOneColor": false,
        "useUTC": false,
        "colors": [
            "#1f77b4",
            "#aec7e8",
            "#ff7f0e",
            "#2ca02c",
            "#98df8a",
            "#d62728",
            "#ff9896",
            "#9467bd",
            "#c5b0d5"
        ],
        "outputs": 1,
        "useDifferentColor": false,
        "className": "",
        "x": 810,
        "y": 100,
        "wires": [
            []
        ]
    },
    {
        "id": "3c596a26b4601be0",
        "type": "ui_chart",
        "z": "31c87af603945808",
        "name": "",
        "group": "36d6d8249c495f7d",
        "order": 3,
        "width": 0,
        "height": 0,
        "label": "Magnetometer",
        "chartType": "line",
        "legend": "true",
        "xformat": "HH:mm:ss",
        "interpolate": "linear",
        "nodata": "",
        "dot": false,
        "ymin": "",
        "ymax": "",
        "removeOlder": 1,
        "removeOlderPoints": "",
        "removeOlderUnit": "60",
        "cutout": 0,
        "useOneColor": false,
        "useUTC": false,
        "colors": [
            "#1f77b4",
            "#aec7e8",
            "#ff7f0e",
            "#2ca02c",
            "#98df8a",
            "#d62728",
            "#ff9896",
            "#9467bd",
            "#c5b0d5"
        ],
        "outputs": 1,
        "useDifferentColor": false,
        "className": "",
        "x": 820,
        "y": 140,
        "wires": [
            []
        ]
    },
    {
        "id": "b570b482e8bc4448",
        "type": "mqtt in",
        "z": "31c87af603945808",
        "name": "XYZ sensors",
        "topic": "xyz",
        "qos": "0",
        "datatype": "auto",
        "broker": "d416d6d62b337f04",
        "nl": false,
        "rap": false,
        "inputs": 0,
        "x": 90,
        "y": 140,
        "wires": [
            [
                "60c3cfb847212982"
            ]
        ]
    },
    {
        "id": "29270866db6ed498",
        "type": "function",
        "z": "31c87af603945808",
        "name": "Acceleration Split Series",
        "func": "var m = [\n    { payload: msg.payload['acc_x'], series: \"X\" },\n    { payload: msg.payload['acc_y'], series: \"Y\" },\n    { payload: msg.payload['acc_z'], series: \"Z\" },\n];\n\nreturn [m];",
        "outputs": 1,
        "noerr": 0,
        "initialize": "",
        "finalize": "",
        "libs": [],
        "x": 570,
        "y": 60,
        "wires": [
            [
                "73409482700dedf4"
            ]
        ]
    },
    {
        "id": "60c3cfb847212982",
        "type": "json",
        "z": "31c87af603945808",
        "name": "JSON to Object",
        "property": "payload",
        "action": "",
        "pretty": false,
        "x": 280,
        "y": 180,
        "wires": [
            [
                "29270866db6ed498",
                "b27021ce11b4f9ec",
                "99e6e282cb947289",
                "bd7d174f87db2346"
            ]
        ]
    },
    {
        "id": "73409482700dedf4",
        "type": "ui_chart",
        "z": "31c87af603945808",
        "name": "",
        "group": "36d6d8249c495f7d",
        "order": 1,
        "width": 0,
        "height": 0,
        "label": "Acceleration",
        "chartType": "line",
        "legend": "true",
        "xformat": "HH:mm:ss",
        "interpolate": "linear",
        "nodata": "",
        "dot": false,
        "ymin": "",
        "ymax": "",
        "removeOlder": 1,
        "removeOlderPoints": "",
        "removeOlderUnit": "60",
        "cutout": 0,
        "useOneColor": false,
        "useUTC": false,
        "colors": [
            "#1f77b4",
            "#aec7e8",
            "#ff7f0e",
            "#2ca02c",
            "#98df8a",
            "#d62728",
            "#ff9896",
            "#9467bd",
            "#c5b0d5"
        ],
        "outputs": 1,
        "useDifferentColor": false,
        "className": "",
        "x": 810,
        "y": 60,
        "wires": [
            []
        ]
    },
    {
        "id": "b27021ce11b4f9ec",
        "type": "function",
        "z": "31c87af603945808",
        "name": "Gyroscope Split Series",
        "func": "var m = [\n    { payload: msg.payload['gyro_x'], series: \"X\" },\n    { payload: msg.payload['gyro_y'], series: \"Y\" },\n    { payload: msg.payload['gyro_z'], series: \"Z\" },\n];\n\nreturn [m];",
        "outputs": 1,
        "noerr": 0,
        "initialize": "",
        "finalize": "",
        "libs": [],
        "x": 560,
        "y": 100,
        "wires": [
            [
                "a80e18fcc8c464af"
            ]
        ]
    },
    {
        "id": "99e6e282cb947289",
        "type": "function",
        "z": "31c87af603945808",
        "name": "Magnetometer Split Series",
        "func": "var m = [\n    { payload: msg.payload['mag_x'], series: \"X\" },\n    { payload: msg.payload['mag_y'], series: \"Y\" },\n    { payload: msg.payload['mag_z'], series: \"Z\" },\n];\n\nreturn [m];",
        "outputs": 1,
        "noerr": 0,
        "initialize": "",
        "finalize": "",
        "libs": [],
        "x": 580,
        "y": 140,
        "wires": [
            [
                "3c596a26b4601be0"
            ]
        ]
    },
    {
        "id": "d5ec8a283d800ff9",
        "type": "mqtt in",
        "z": "31c87af603945808",
        "name": "BSEC sensor",
        "topic": "bsec",
        "qos": "0",
        "datatype": "auto",
        "broker": "d416d6d62b337f04",
        "nl": false,
        "rap": false,
        "inputs": 0,
        "x": 90,
        "y": 260,
        "wires": [
            [
                "b717467e329cb26c"
            ]
        ]
    },
    {
        "id": "76961b6140c9c6ad",
        "type": "comment",
        "z": "31c87af603945808",
        "name": "Motion Sensors",
        "info": "",
        "x": 540,
        "y": 20,
        "wires": []
    },
    {
        "id": "e64bdf3e2a107f61",
        "type": "mysql",
        "z": "31c87af603945808",
        "mydb": "c79261ef7a0d57f6",
        "name": "MySQL Instance",
        "x": 460,
        "y": 700,
        "wires": [
            [
                "73d0ab659ebe5be5"
            ]
        ]
    },
    {
        "id": "e7b6428eea594007",
        "type": "function",
        "z": "31c87af603945808",
        "name": "Insert test",
        "func": "// msg.topic must hold the query for the database\n// result is returned in msg.payload\nmsg.payload = ['NodeRED', 'test@nodered.com'];\nmsg.topic = \"INSERT INTO users (name, email) VALUES (?, ?);\"\nreturn msg;",
        "outputs": 1,
        "noerr": 0,
        "initialize": "",
        "finalize": "",
        "libs": [],
        "x": 280,
        "y": 700,
        "wires": [
            [
                "e64bdf3e2a107f61"
            ]
        ]
    },
    {
        "id": "92b3509b04b0d081",
        "type": "inject",
        "z": "31c87af603945808",
        "name": "Inject data",
        "props": [],
        "repeat": "",
        "crontab": "",
        "once": false,
        "onceDelay": 0.1,
        "topic": "",
        "x": 120,
        "y": 700,
        "wires": [
            [
                "e7b6428eea594007"
            ]
        ]
    },
    {
        "id": "73d0ab659ebe5be5",
        "type": "debug",
        "z": "31c87af603945808",
        "name": "DB Debug",
        "active": false,
        "tosidebar": true,
        "console": true,
        "tostatus": false,
        "complete": "true",
        "targetType": "full",
        "statusVal": "",
        "statusType": "auto",
        "x": 690,
        "y": 700,
        "wires": []
    },
    {
        "id": "a1f7e4d532155983",
        "type": "mqtt in",
        "z": "31c87af603945808",
        "name": "MQTT dynamic subscriber",
        "topic": "",
        "qos": "2",
        "datatype": "json",
        "broker": "d416d6d62b337f04",
        "nl": false,
        "rap": true,
        "rh": 0,
        "inputs": 1,
        "x": 150,
        "y": 760,
        "wires": [
            [
                "21e4108715f29555"
            ]
        ]
    },
    {
        "id": "21e4108715f29555",
        "type": "debug",
        "z": "31c87af603945808",
        "name": "MQTT Debug",
        "active": false,
        "tosidebar": true,
        "console": false,
        "tostatus": false,
        "complete": "true",
        "targetType": "full",
        "statusVal": "",
        "statusType": "auto",
        "x": 700,
        "y": 760,
        "wires": []
    },
    {
        "id": "b717467e329cb26c",
        "type": "json",
        "z": "31c87af603945808",
        "name": "JSON to Object",
        "property": "payload",
        "action": "",
        "pretty": false,
        "x": 280,
        "y": 260,
        "wires": [
            [
                "d6b76f8736d3467b",
                "7f77b7766f8cee75",
                "6baa8a354e2d2aa4",
                "7f68a3e13371f974",
                "af6f2feeb85c1489",
                "93676b2a11f4bf47",
                "94543bc7714ddea0",
                "bf3ae58b8f967354"
            ]
        ]
    },
    {
        "id": "8343ae243a26be0c",
        "type": "comment",
        "z": "31c87af603945808",
        "name": "BSEC JSON to Object",
        "info": "Parse the payload, which is a JSON string, into an Object in order to access the accelerometer coordinates.",
        "x": 300,
        "y": 220,
        "wires": []
    },
    {
        "id": "3f9e347b0c08f259",
        "type": "ui_gauge",
        "z": "31c87af603945808",
        "name": "",
        "group": "3886710e2462762d",
        "order": 4,
        "width": 0,
        "height": 0,
        "gtype": "wave",
        "title": "Humidity",
        "label": "%",
        "format": "{{value|number:2}}",
        "min": 0,
        "max": "100",
        "colors": [
            "#00b500",
            "#e6e600",
            "#ca3838"
        ],
        "seg1": "33",
        "seg2": "67",
        "className": "",
        "x": 800,
        "y": 500,
        "wires": []
    },
    {
        "id": "d6b76f8736d3467b",
        "type": "function",
        "z": "31c87af603945808",
        "name": "Humidity Split Series",
        "func": "var m = [\n    { payload: msg.payload['hum'], series: \"HUM\" },\n];\n\nreturn [m];",
        "outputs": 1,
        "noerr": 0,
        "initialize": "",
        "finalize": "",
        "libs": [],
        "x": 540,
        "y": 500,
        "wires": [
            [
                "3f9e347b0c08f259"
            ]
        ]
    },
    {
        "id": "7f77b7766f8cee75",
        "type": "function",
        "z": "31c87af603945808",
        "name": "IAQ Split Series",
        "func": "var m = [\n    { payload: msg.payload['iaq'], series: \"IAQ\" },\n];\n\nreturn [m];",
        "outputs": 1,
        "noerr": 0,
        "initialize": "",
        "finalize": "",
        "libs": [],
        "x": 520,
        "y": 340,
        "wires": [
            [
                "ae9ead6bd0943763"
            ]
        ]
    },
    {
        "id": "ae9ead6bd0943763",
        "type": "ui_gauge",
        "z": "31c87af603945808",
        "name": "",
        "group": "3886710e2462762d",
        "order": 1,
        "width": 0,
        "height": 0,
        "gtype": "gage",
        "title": "Index Air Quality",
        "label": "IAQ",
        "format": "{{value}}",
        "min": 0,
        "max": "500",
        "colors": [
            "#00b500",
            "#e6e600",
            "#ca3838"
        ],
        "seg1": "167",
        "seg2": "333",
        "className": "",
        "x": 820,
        "y": 340,
        "wires": []
    },
    {
        "id": "6baa8a354e2d2aa4",
        "type": "function",
        "z": "31c87af603945808",
        "name": "Accuracy Split Series",
        "func": "var m = [\n    { payload: msg.payload['acc'], series: \"ACC\" },\n];\n\nreturn [m];",
        "outputs": 1,
        "noerr": 0,
        "initialize": "",
        "finalize": "",
        "libs": [],
        "x": 540,
        "y": 580,
        "wires": [
            [
                "efcd61b32629d17d"
            ]
        ]
    },
    {
        "id": "efcd61b32629d17d",
        "type": "ui_gauge",
        "z": "31c87af603945808",
        "name": "",
        "group": "3886710e2462762d",
        "order": 3,
        "width": 0,
        "height": 0,
        "gtype": "gage",
        "title": "Accuracy",
        "label": "",
        "format": "{{value}}",
        "min": 0,
        "max": "3",
        "colors": [
            "#ca3838",
            "#e6e600",
            "#00b500"
        ],
        "seg1": "1",
        "seg2": "2",
        "diff": false,
        "className": "",
        "x": 800,
        "y": 580,
        "wires": []
    },
    {
        "id": "6565ca4ba2482090",
        "type": "ui_gauge",
        "z": "31c87af603945808",
        "name": "",
        "group": "3886710e2462762d",
        "order": 2,
        "width": 0,
        "height": 0,
        "gtype": "gage",
        "title": "Temperature",
        "label": "°C",
        "format": "{{value|number:2}}",
        "min": 0,
        "max": "100",
        "colors": [
            "#00b500",
            "#e6e600",
            "#ca3838"
        ],
        "seg1": "33",
        "seg2": "67",
        "className": "",
        "x": 810,
        "y": 460,
        "wires": []
    },
    {
        "id": "7f68a3e13371f974",
        "type": "function",
        "z": "31c87af603945808",
        "name": "Temperature Split Series",
        "func": "var m = [\n    { payload: msg.payload['temp'], series: \"TEMP\" },\n];\n\nreturn [m];",
        "outputs": 1,
        "noerr": 0,
        "initialize": "",
        "finalize": "",
        "libs": [],
        "x": 550,
        "y": 460,
        "wires": [
            [
                "6565ca4ba2482090"
            ]
        ]
    },
    {
        "id": "af6f2feeb85c1489",
        "type": "function",
        "z": "31c87af603945808",
        "name": "BVOC Split Series",
        "func": "var m = [\n    { payload: msg.payload['b_voc'], series: \"BVOC\" },\n];\n\nreturn [m];",
        "outputs": 1,
        "noerr": 0,
        "initialize": "",
        "finalize": "",
        "libs": [],
        "x": 530,
        "y": 380,
        "wires": [
            [
                "907e95de464e494b"
            ]
        ]
    },
    {
        "id": "907e95de464e494b",
        "type": "ui_chart",
        "z": "31c87af603945808",
        "name": "",
        "group": "3886710e2462762d",
        "order": 4,
        "width": 0,
        "height": 0,
        "label": "BVOC Line Chart",
        "chartType": "line",
        "legend": "false",
        "xformat": "HH:mm:ss",
        "interpolate": "linear",
        "nodata": "",
        "dot": false,
        "ymin": "",
        "ymax": "",
        "removeOlder": 1,
        "removeOlderPoints": "",
        "removeOlderUnit": "3600",
        "cutout": 0,
        "useOneColor": false,
        "useUTC": false,
        "colors": [
            "#1f77b4",
            "#aec7e8",
            "#ff7f0e",
            "#2ca02c",
            "#98df8a",
            "#d62728",
            "#ff9896",
            "#9467bd",
            "#c5b0d5"
        ],
        "outputs": 1,
        "useDifferentColor": false,
        "className": "",
        "x": 830,
        "y": 380,
        "wires": [
            []
        ]
    },
    {
        "id": "93676b2a11f4bf47",
        "type": "function",
        "z": "31c87af603945808",
        "name": "CO2 Split Series",
        "func": "var m = [\n    { payload: msg.payload['co2'], series: \"CO2\" },\n];\n\nreturn [m];",
        "outputs": 1,
        "noerr": 0,
        "initialize": "",
        "finalize": "",
        "libs": [],
        "x": 520,
        "y": 420,
        "wires": [
            [
                "c71beb10537082e0"
            ]
        ]
    },
    {
        "id": "c71beb10537082e0",
        "type": "ui_chart",
        "z": "31c87af603945808",
        "name": "",
        "group": "3886710e2462762d",
        "order": 4,
        "width": 0,
        "height": 0,
        "label": "CO2 Equivalent",
        "chartType": "line",
        "legend": "false",
        "xformat": "HH:mm:ss",
        "interpolate": "linear",
        "nodata": "",
        "dot": false,
        "ymin": "",
        "ymax": "",
        "removeOlder": 1,
        "removeOlderPoints": "",
        "removeOlderUnit": "3600",
        "cutout": 0,
        "useOneColor": false,
        "useUTC": false,
        "colors": [
            "#1f77b4",
            "#aec7e8",
            "#ff7f0e",
            "#2ca02c",
            "#98df8a",
            "#d62728",
            "#ff9896",
            "#9467bd",
            "#c5b0d5"
        ],
        "outputs": 1,
        "useDifferentColor": false,
        "className": "",
        "x": 820,
        "y": 420,
        "wires": [
            []
        ]
    },
    {
        "id": "f87f3b5a2aa10770",
        "type": "ui_chart",
        "z": "31c87af603945808",
        "name": "",
        "group": "3886710e2462762d",
        "order": 4,
        "width": 0,
        "height": 0,
        "label": "Gas Resistance",
        "chartType": "line",
        "legend": "false",
        "xformat": "HH:mm:ss",
        "interpolate": "linear",
        "nodata": "",
        "dot": false,
        "ymin": "",
        "ymax": "",
        "removeOlder": 1,
        "removeOlderPoints": "",
        "removeOlderUnit": "3600",
        "cutout": 0,
        "useOneColor": false,
        "useUTC": false,
        "colors": [
            "#1f77b4",
            "#aec7e8",
            "#ff7f0e",
            "#2ca02c",
            "#98df8a",
            "#d62728",
            "#ff9896",
            "#9467bd",
            "#c5b0d5"
        ],
        "outputs": 1,
        "useDifferentColor": false,
        "className": "",
        "x": 820,
        "y": 540,
        "wires": [
            []
        ]
    },
    {
        "id": "94543bc7714ddea0",
        "type": "function",
        "z": "31c87af603945808",
        "name": "Gas res. Split Series",
        "func": "var m = [\n    { payload: msg.payload['gas_res'], series: \"GAS\" },\n];\n\nreturn [m];",
        "outputs": 1,
        "noerr": 0,
        "initialize": "",
        "finalize": "",
        "libs": [],
        "x": 540,
        "y": 540,
        "wires": [
            [
                "f87f3b5a2aa10770"
            ]
        ]
    },
    {
        "id": "981cefe57fed8d2a",
        "type": "comment",
        "z": "31c87af603945808",
        "name": "Environment Sensors",
        "info": "",
        "x": 540,
        "y": 300,
        "wires": []
    },
    {
        "id": "3de84272820a5f10",
        "type": "mysql",
        "z": "31c87af603945808",
        "mydb": "c79261ef7a0d57f6",
        "name": "MySQL Instance",
        "x": 820,
        "y": 220,
        "wires": [
            [
                "5b431da9c4694de1"
            ]
        ]
    },
    {
        "id": "bf3ae58b8f967354",
        "type": "function",
        "z": "31c87af603945808",
        "name": "Insert BSEC into DB",
        "func": "// msg.topic must hold the query for the database\n// result is returned in msg.payload\n// msg.payload = ['NodeRED', 'test@nodered.com'];\n\nlet input = msg\n\n// https://stackoverflow.com/a/11150727/13197032\nvar date;\ndate = new Date();\ndate = date.getUTCFullYear() + '-' +\n    ('00' + (date.getUTCMonth() + 1)).slice(-2) + '-' +\n    ('00' + date.getUTCDate()).slice(-2) + ' ' +\n    ('00' + date.getUTCHours()).slice(-2) + ':' +\n    ('00' + date.getUTCMinutes()).slice(-2) + ':' +\n    ('00' + date.getUTCSeconds()).slice(-2);\n\nconsole.log('input: -- ', input)\n\n// fill msg.payload with all the values to insert into the database\nmsg.payload = [\n    input.payload['iaq'],\n    input.payload['iaq'], // not sending static IAQ right now\n    input.payload['b_voc'],\n    input.payload['co2'],\n    input.payload['temp'],\n    input.payload['hum'],\n    input.payload['gas_res'],\n    input.payload['acc'],\n    Date.now()\n];\n\nmsg.topic = \"INSERT INTO nicla_bsec(iaq, iaq_s, b_voc_eq, co2_eq, comp_t, comp_h, comp_g, accuracy, time) VALUES (?, ?, ?, ?, ?, ?, ?, ?, ?);\"\nreturn msg;",
        "outputs": 1,
        "noerr": 0,
        "initialize": "",
        "finalize": "",
        "libs": [],
        "x": 560,
        "y": 240,
        "wires": [
            [
                "3de84272820a5f10"
            ]
        ]
    },
    {
        "id": "5b431da9c4694de1",
        "type": "debug",
        "z": "31c87af603945808",
        "name": "DB Debug",
        "active": false,
        "tosidebar": true,
        "console": true,
        "tostatus": false,
        "complete": "true",
        "targetType": "full",
        "statusVal": "",
        "statusType": "auto",
        "x": 1010,
        "y": 220,
        "wires": []
    },
    {
        "id": "bd7d174f87db2346",
        "type": "function",
        "z": "31c87af603945808",
        "name": "Insert IMU into DB",
        "func": "// msg.topic must hold the query for the database\n// result is returned in msg.payload\n// msg.payload = ['NodeRED', 'test@nodered.com'];\n\nlet input = msg\n\n// https://riptutorial.com/mysql/example/25536/store-a-javascript-timestamp-into-a-timestamp-column\nlet date = Date.now() // * 0.001;\n\n// console.log('input: -- ', input)\n\n// fill msg.payload with all the values to insert into the database\nmsg.payload = [\n    input.payload['acc_x'],\n    input.payload['acc_y'], // not sending static IAQ right now\n    input.payload['acc_z'],\n    input.payload['gyro_x'],\n    input.payload['gyro_y'],\n    input.payload['gyro_z'],\n    input.payload['mag_x'],\n    input.payload['mag_y'],\n    input.payload['mag_z'],\n    date\n];\n\nmsg.topic = \"INSERT INTO nicla_imu(acc_x, acc_y, acc_z, gyro_x, gyro_y, gyro_z, mag_x, mag_y, mag_z, time) VALUES (?, ?, ?, ?, ?, ?, ?, ?, ?, ?);\"\nreturn msg;",
        "outputs": 1,
        "noerr": 0,
        "initialize": "",
        "finalize": "",
        "libs": [],
        "x": 550,
        "y": 200,
        "wires": [
            [
                "3de84272820a5f10"
            ]
        ]
    }
]