[
    {
        "id": "e567e4ae98e512a1",
        "type": "tab",
        "label": "MQTT RGB LED",
        "disabled": false,
        "info": "",
        "env": []
    },
    {
        "id": "3f1621e656731054",
        "type": "mqtt in",
        "z": "e567e4ae98e512a1",
        "name": "",
        "topic": "/rgb",
        "qos": "0",
        "datatype": "auto",
        "broker": "d4561f595e491cdc",
        "nl": false,
        "rap": false,
        "inputs": 0,
        "x": 310,
        "y": 220,
        "wires": [
            [
                "40766886a2911fbc",
                "73f1a3a6d3edb4a1",
                "c4f5cdc113c88b5a"
            ]
        ]
    },
    {
        "id": "41bf6c1dd1363d55",
        "type": "mqtt out",
        "z": "e567e4ae98e512a1",
        "name": "",
        "topic": "/rgb",
        "qos": "",
        "retain": "",
        "respTopic": "",
        "contentType": "",
        "userProps": "",
        "correl": "",
        "expiry": "",
        "broker": "d4561f595e491cdc",
        "x": 630,
        "y": 300,
        "wires": []
    },
    {
        "id": "40766886a2911fbc",
        "type": "ui_text",
        "z": "e567e4ae98e512a1",
        "group": "4a1089baa7aa6a9b",
        "order": 1,
        "width": 6,
        "height": 1,
        "name": "",
        "label": "Payload",
        "format": "{{msg.payload}}",
        "layout": "row-left",
        "className": "",
        "x": 460,
        "y": 180,
        "wires": []
    },
    {
        "id": "73f1a3a6d3edb4a1",
        "type": "debug",
        "z": "e567e4ae98e512a1",
        "name": "",
        "active": true,
        "tosidebar": true,
        "console": false,
        "tostatus": false,
        "complete": "true",
        "targetType": "full",
        "statusVal": "",
        "statusType": "auto",
        "x": 650,
        "y": 220,
        "wires": []
    },
    {
        "id": "c4f5cdc113c88b5a",
        "type": "ui_colour_picker",
        "z": "e567e4ae98e512a1",
        "name": "",
        "label": "Color Picker",
        "group": "4a1089baa7aa6a9b",
        "format": "hex",
        "outformat": "string",
        "showSwatch": true,
        "showPicker": false,
        "showValue": false,
        "showHue": false,
        "showAlpha": false,
        "showLightness": true,
        "square": "false",
        "dynOutput": "false",
        "order": 1,
        "width": 0,
        "height": 0,
        "passthru": false,
        "topic": "/rgb",
        "topicType": "str",
        "className": "",
        "x": 470,
        "y": 300,
        "wires": [
            [
                "41bf6c1dd1363d55"
            ]
        ]
    },
    {
        "id": "d4561f595e491cdc",
        "type": "mqtt-broker",
        "z": "e567e4ae98e512a1",
        "name": "",
        "broker": "192.168.1.57",
        "port": "1883",
        "clientid": "",
        "autoConnect": true,
        "usetls": false,
        "protocolVersion": "4",
        "keepalive": "60",
        "cleansession": true,
        "birthTopic": "",
        "birthQos": "0",
        "birthPayload": "",
        "birthMsg": {},
        "closeTopic": "",
        "closeQos": "0",
        "closePayload": "",
        "closeMsg": {},
        "willTopic": "",
        "willQos": "0",
        "willPayload": "",
        "willMsg": {},
        "sessionExpiry": "",
        "info": "Primary static IP address of my local network."
    },
    {
        "id": "4a1089baa7aa6a9b",
        "type": "ui_group",
        "z": "e567e4ae98e512a1",
        "name": "GRB Control",
        "tab": "59bfde482f046cc1",
        "order": 1,
        "disp": true,
        "width": "6",
        "collapse": false,
        "className": ""
    },
    {
        "id": "59bfde482f046cc1",
        "type": "ui_tab",
        "name": "MQTT RGB LED",
        "icon": "dashboard",
        "order": 2,
        "disabled": false,
        "hidden": false
    }
]